<svg xmlns="http://www.w3.org/2000/svg" width="1523.515" height="449.04" viewBox="0 0 1523.515 449.04">
  <g id="logo-white" transform="translate(-5192.761 -225.48)">
    <g id="Grupo_1950" data-name="Grupo 1950">
      <path id="Caminho_3976" data-name="Caminho 3976" d="M6312.34,316.473h43.906l-77.567,99.52v54.151H6242.09V415.993l-77.567-99.52h43.906l52.687,70.25Zm203.432,0v33.661H6413.324v26.344h99.521v33.661h-99.521V439.41h102.448v33.661H6376.736v-156.6Zm112.692,95.13h-27.807v58.541h-36.588V316.473h93.666c26.344,0,46.833,21.953,46.833,48.3a47.419,47.419,0,0,1-33.661,45.369l45.369,60.005H6672.37Zm26.344-62.932H6602.12v29.27h52.688a14.665,14.665,0,0,0,14.635-14.635C6669.443,355.988,6662.126,348.671,6654.808,348.671ZM6180.622,470.144h-39.516L6129.4,443.8h-86.349l-11.708,26.343h-39.516l77.568-153.671h35.125Zm-95.13-114.156L6059.148,411.6H6113.3Zm-232.7,19.026h64.4a13.172,13.172,0,1,0,0-26.343h-64.4Zm0,61.469h65.859c8.782,0,14.636-5.854,14.636-14.635s-5.854-14.636-14.636-14.636h-65.859ZM5956.7,389.65c8.782,8.781,14.636,20.489,14.636,33.661,0,26.344-20.49,46.833-46.833,46.833H5816.2V316.473h105.375a45.6,45.6,0,0,1,45.369,45.369C5966.945,372.087,5962.555,382.332,5956.7,389.65Z" fill="#fff"/>
      <g id="Grupo_1949" data-name="Grupo 1949">
        <path id="Caminho_3977" data-name="Caminho 3977" d="M5879.222,582.546l-18.944-32.422H5834.9v32.422h-18.7v-86.7h42.621q36.306,0,36.307,27.079,0,8.744-4.068,14.571t-12.447,9.107l21.858,35.943Zm-21.858-47.357q9.591,0,14.147-2.975t4.554-9.411q0-6.434-4.311-9.228t-14.146-2.792H5834.9v24.406Z" fill="#fff"/>
        <path id="Caminho_3978" data-name="Caminho 3978" d="M5908.606,582.546v-86.7h72.614v15.908h-53.185v18.214h50.635v15.907h-50.635v20.764h55.856l-2.428,15.907Z" fill="#fff"/>
        <path id="Caminho_3979" data-name="Caminho 3979" d="M6085.161,552.553q-2.065,15.423-13.9,23.8t-31.268,8.378q-14.572,0-25.5-5.343a38.55,38.55,0,0,1-16.878-15.664q-5.95-10.32-5.95-24.529,0-13.479,5.768-23.738a40.131,40.131,0,0,1,16.7-16.029q10.929-5.766,25.742-5.768,36.064,0,43.837,29.75l-19.307,2.307q-3.039-8.621-8.8-12.386t-15.726-3.764q-12.993,0-20.52,7.893t-7.529,21.735q0,13.967,7.529,21.8t20.885,7.831q10.806,0,17-4.007t8.257-12.264Z" fill="#fff"/>
        <path id="Caminho_3980" data-name="Caminho 3980" d="M6192.988,539.2q0,13.723-6.009,23.982a40.4,40.4,0,0,1-17.365,15.907q-11.355,5.646-27.018,5.647-15.057,0-26.289-5.4a40.542,40.542,0,0,1-17.486-15.664q-6.255-10.258-6.253-24.468,0-13.72,6.011-23.982a40.411,40.411,0,0,1,17.364-15.907q11.353-5.646,27.018-5.646,15.054,0,26.289,5.4a40.581,40.581,0,0,1,17.485,15.664Q6192.987,524.991,6192.988,539.2Zm-20.156,0q0-14.083-7.893-21.857t-22.222-7.771q-14.206,0-22.1,7.832t-7.893,21.8q0,14.088,7.893,21.858t22.221,7.77q14.208,0,22.1-7.831T6172.832,539.2Z" fill="#fff"/>
        <path id="Caminho_3981" data-name="Caminho 3981" d="M6294.138,582.546V523.411l-27.686,59.135h-14.935l-27.686-58.65v58.65h-17.85v-86.7h22.586l30.843,65.815,30.721-65.815h22.1v86.7Z" fill="#fff"/>
        <path id="Caminho_3982" data-name="Caminho 3982" d="M6329.352,582.546v-86.7h72.614v15.908h-53.185v18.214h50.635v15.907h-50.635v20.764h55.856l-2.429,15.907Z" fill="#fff"/>
        <path id="Caminho_3983" data-name="Caminho 3983" d="M6485.264,582.546l-50.15-60.593v60.593h-18.578v-86.7h17.728l50.15,60.593V495.846h18.579v86.7Z" fill="#fff"/>
        <path id="Caminho_3984" data-name="Caminho 3984" d="M6520.112,582.546v-86.7h38.857q24.891,0,37.947,11.111t13.052,32.239q0,20.765-13.781,32.057t-39.161,11.293Zm37.764-16.149q15.907,0,23.982-6.923t8.076-20.4q0-27.078-30.358-27.079h-20.157v54.4Z" fill="#fff"/>
        <path id="Caminho_3985" data-name="Caminho 3985" d="M6694.724,582.546l-8.621-19.671h-43.714l-8.5,19.671h-20.036l39.708-86.7h21.978l39.706,86.7Zm-30.478-69.821-15.3,34.728h30.6Z" fill="#fff"/>
      </g>
    </g>
    <path id="Caminho_3986" data-name="Caminho 3986" d="M5307.356,484.361l114.858-81.779S5346.051,386.268,5307.356,484.361Zm-4.062-4.96,4.834-85.849S5271.337,423.6,5303.294,479.4Z" fill="#fff"/>
    <g id="Grupo_1951" data-name="Grupo 1951">
      <path id="Caminho_3987" data-name="Caminho 3987" d="M5422.214,402.582l-114.858,81.779S5403.36,487.634,5422.214,402.582Z" fill="#fff"/>
      <path id="Caminho_3988" data-name="Caminho 3988" d="M5308.128,393.552l-4.834,85.849S5341.437,434.94,5308.128,393.552Z" fill="#fff"/>
    </g>
    <path id="Caminho_3989" data-name="Caminho 3989" d="M5626.87,350.963c-102.278,5.813-152.772,108.9-195.363,152.418-20.908,21.362-42.747,35.38-64.367,44.1-68.335,27.564-142.815-22.937-143.137-96.621q-.006-1.254,0-2.511c.878-104.947,86.55-190.678,191.5-191.62a192.826,192.826,0,0,1,147.651,66.478,56.744,56.744,0,0,0,50.558,18.65l.335-.045A224.552,224.552,0,0,0,5211.1,538.941c94.351,57.831,176.241,35.551,225.34,5.953,97.692-58.892,126.38-138.418,215.3-110.319,0,0-94.227-11.091-185.066,138.545,0,0,249.258,30.521,290.428-196.373C5757.1,376.747,5697.932,346.923,5626.87,350.963Z" fill="#fff"/>
    <path id="Caminho_3990" data-name="Caminho 3990" d="M5417.281,643.278a192.4,192.4,0,0,1-116.563-39.1c-17.67-13.382-36.727-24.9-57.327-33.082a213.921,213.921,0,0,1-21.122-9.763,224.582,224.582,0,0,0,386.788,5.472q-2.565.888-5.126,1.721a255.332,255.332,0,0,0-72.258,37.272A192.377,192.377,0,0,1,5417.281,643.278Z" fill="#fff"/>
    <path id="Caminho_3991" data-name="Caminho 3991" d="M5375.208,490.349l-1.295-.783a15.654,15.654,0,0,0-18,1.268,46.747,46.747,0,0,1-29.7,10.807c-27.752,0-50.25-25.027-50.25-55.9a60.866,60.866,0,0,1,4.683-23.527,17,17,0,0,0,4.246-6.026,16.522,16.522,0,0,0,1.211-4.973.166.166,0,0,1,.082-.131l.843-.5a5.379,5.379,0,0,0,2.722-5.494,5.006,5.006,0,0,0-4.643-4.132l-1.237-.084q-.4-.73-.871-1.426l-.092-.95c-.454-3.393-3.445-6.628-7.8-8.443-4.6-1.914-9.143-1.642-11.831.655l-.576.374c-.513.1-1.022.232-1.533.383l-.889-.783a5.912,5.912,0,0,0-4.7-1.281,5.1,5.1,0,0,0-3.746,6.208l.421,1.647a16.59,16.59,0,0,0-2.578,4.249,17.285,17.285,0,0,0-.117,12.912l-.327.767A22.122,22.122,0,0,0,5242.2,427.2a22.537,22.537,0,0,0,.444,11.081,1.4,1.4,0,0,1-.084,1.017,22.311,22.311,0,0,0-.755,17.855q.046,1.1.116,2.192a22.39,22.39,0,0,0,4.2,23.429,1.431,1.431,0,0,1,.342,1.279,22.1,22.1,0,0,0-.528,4.746,22.528,22.528,0,0,0,12.966,20.4,1.439,1.439,0,0,1,.829,1.206,22.506,22.506,0,0,0,22.436,20.843c.393,0,.78-.03,1.168-.055.094.057.19.112.285.168a22.45,22.45,0,0,0,23.192,10.18,1.4,1.4,0,0,1,1.016.2,22.516,22.516,0,0,0,24.363-.106,1.39,1.39,0,0,1,1.056-.2,22.369,22.369,0,0,0,22.065-7.818c.669.06,1.343.1,2.027.1,12.44,0,23.989-10.821,23.989-23.261v-.029A15.7,15.7,0,0,0,5375.208,490.349ZM5250.73,425.141a3,3,0,1,1-3,3A3,3,0,0,1,5250.73,425.141Zm-6,22.643a3,3,0,1,1,3,3A3,3,0,0,1,5244.73,447.784Zm5.127,25.286a3,3,0,1,1,3-3A3,3,0,0,1,5249.857,473.07Zm6,24.789a3,3,0,1,1,3-3A3,3,0,0,1,5255.857,497.859Zm16.046,25a3,3,0,1,1,3-3A3,3,0,0,1,5271.9,522.858Zm24.283,14.055a3,3,0,1,1,3-3A3,3,0,0,1,5296.186,536.913Zm23.688,5.011a3,3,0,1,1,3-3A3,3,0,0,1,5319.874,541.924Zm23.448-4.132a3,3,0,1,1,3-3A3,3,0,0,1,5343.322,537.792Zm25-13.07a3,3,0,1,1,3-3A3,3,0,0,1,5368.323,524.722Z" fill="#fff"/>
  </g>
</svg>
