<svg xmlns="http://www.w3.org/2000/svg" width="1523.516" height="449.04" viewBox="0 0 1523.516 449.04">
  <g id="logo-default" transform="translate(-3162.27 -225.48)">
    <g id="Grupo_1954" data-name="Grupo 1954">
      <path id="Caminho_3992" data-name="Caminho 3992" d="M4281.85,316.473h43.906l-77.568,99.52v54.151H4211.6V415.993l-77.567-99.52h43.906l52.687,70.25Zm203.432,0v33.661H4382.834v26.344h99.521v33.661h-99.521V439.41h102.448v33.661H4346.246v-156.6Zm112.692,95.13h-27.807v58.541h-36.589V316.473h93.667c26.343,0,46.833,21.953,46.833,48.3a47.419,47.419,0,0,1-33.662,45.369l45.37,60.005H4641.88Zm26.344-62.932H4571.63v29.27h52.688a14.665,14.665,0,0,0,14.635-14.635C4638.953,355.988,4631.635,348.671,4624.318,348.671ZM4150.131,470.144h-39.515L4098.908,443.8h-86.349l-11.708,26.343h-39.516L4038.9,316.473h35.125ZM4055,355.988,4028.658,411.6h54.151Zm-232.7,19.026h64.4a13.172,13.172,0,1,0,0-26.343h-64.4Zm0,61.469h65.859c8.781,0,14.636-5.854,14.636-14.635s-5.855-14.636-14.636-14.636H3822.3ZM3926.21,389.65c8.781,8.781,14.636,20.489,14.636,33.661,0,26.344-20.49,46.833-46.834,46.833h-108.3V316.473h105.374a45.6,45.6,0,0,1,45.37,45.369C3936.455,372.087,3932.064,382.332,3926.21,389.65Z" fill="#5eb423"/>
      <g id="Grupo_1953" data-name="Grupo 1953">
        <path id="Caminho_3993" data-name="Caminho 3993" d="M3848.731,582.546l-18.943-32.422H3804.41v32.422h-18.7v-86.7h42.621q36.306,0,36.307,27.079,0,8.744-4.068,14.571t-12.447,9.107l21.858,35.943Zm-21.857-47.357q9.591,0,14.147-2.975t4.554-9.411q0-6.434-4.311-9.228t-14.147-2.792H3804.41v24.406Z" fill="#29aecf"/>
        <path id="Caminho_3994" data-name="Caminho 3994" d="M3878.116,582.546v-86.7h72.614v15.908h-53.185v18.214h50.635v15.907h-50.635v20.764H3953.4l-2.429,15.907Z" fill="#29aecf"/>
        <path id="Caminho_3995" data-name="Caminho 3995" d="M4054.671,552.553q-2.065,15.423-13.9,23.8t-31.268,8.378q-14.571,0-25.5-5.343a38.542,38.542,0,0,1-16.878-15.664q-5.951-10.32-5.95-24.529,0-13.479,5.767-23.738a40.14,40.14,0,0,1,16.7-16.029q10.929-5.766,25.743-5.768,36.064,0,43.836,29.75l-19.307,2.307q-3.037-8.621-8.8-12.386t-15.726-3.764q-12.994,0-20.52,7.893t-7.53,21.735q0,13.967,7.53,21.8t20.885,7.831q10.806,0,17-4.007T4035,552.553Z" fill="#29aecf"/>
        <path id="Caminho_3996" data-name="Caminho 3996" d="M4162.5,539.2q0,13.723-6.01,23.982a40.406,40.406,0,0,1-17.365,15.907q-11.353,5.646-27.017,5.647-15.059,0-26.289-5.4a40.542,40.542,0,0,1-17.486-15.664q-6.255-10.258-6.253-24.468,0-13.72,6.011-23.982a40.411,40.411,0,0,1,17.364-15.907q11.352-5.646,27.017-5.646,15.055,0,26.29,5.4a40.585,40.585,0,0,1,17.485,15.664Q4162.5,524.991,4162.5,539.2Zm-20.156,0q0-14.083-7.894-21.857t-22.221-7.771q-14.207,0-22.1,7.832t-7.894,21.8q0,14.088,7.894,21.858t22.221,7.77q14.206,0,22.1-7.831T4142.342,539.2Z" fill="#29aecf"/>
        <path id="Caminho_3997" data-name="Caminho 3997" d="M4263.648,582.546V523.411l-27.686,59.135h-14.935l-27.686-58.65v58.65h-17.85v-86.7h22.585l30.844,65.815,30.721-65.815h22.1v86.7Z" fill="#29aecf"/>
        <path id="Caminho_3998" data-name="Caminho 3998" d="M4298.862,582.546v-86.7h72.614v15.908H4318.29v18.214h50.635v15.907H4318.29v20.764h55.857l-2.429,15.907Z" fill="#29aecf"/>
        <path id="Caminho_3999" data-name="Caminho 3999" d="M4454.774,582.546l-50.15-60.593v60.593h-18.578v-86.7h17.728l50.15,60.593V495.846H4472.5v86.7Z" fill="#29aecf"/>
        <path id="Caminho_4000" data-name="Caminho 4000" d="M4489.622,582.546v-86.7h38.856q24.893,0,37.947,11.111t13.053,32.239q0,20.765-13.781,32.057t-39.161,11.293Zm37.764-16.149q15.906,0,23.982-6.923t8.075-20.4q0-27.078-30.357-27.079h-20.157v54.4Z" fill="#29aecf"/>
        <path id="Caminho_4001" data-name="Caminho 4001" d="M4664.234,582.546l-8.621-19.671H4611.9l-8.5,19.671h-20.035l39.707-86.7h21.978l39.707,86.7Zm-30.479-69.821-15.3,34.728h30.6Z" fill="#29aecf"/>
      </g>
    </g>
    <path id="Caminho_4002" data-name="Caminho 4002" d="M3276.866,484.361l114.858-81.779S3315.561,386.268,3276.866,484.361Zm-4.062-4.96,4.833-85.849S3240.847,423.6,3272.8,479.4Z" fill="#5eb423"/>
    <g id="Grupo_1955" data-name="Grupo 1955">
      <path id="Caminho_4003" data-name="Caminho 4003" d="M3391.724,402.582l-114.858,81.779S3372.87,487.634,3391.724,402.582Z" fill="#5aa521"/>
      <path id="Caminho_4004" data-name="Caminho 4004" d="M3277.638,393.552,3272.8,479.4S3310.946,434.94,3277.638,393.552Z" fill="#5aa521"/>
    </g>
    <path id="Caminho_4005" data-name="Caminho 4005" d="M3596.38,350.963c-102.278,5.813-152.773,108.9-195.363,152.418-20.908,21.362-42.747,35.38-64.368,44.1-68.335,27.564-142.814-22.937-143.136-96.621q-.006-1.254.005-2.511c.878-104.947,86.55-190.678,191.5-191.62a192.822,192.822,0,0,1,147.65,66.478,56.745,56.745,0,0,0,50.558,18.65l.335-.045a224.551,224.551,0,0,0-402.95,197.128c94.351,57.831,176.24,35.551,225.339,5.953,97.693-58.892,126.381-138.418,215.3-110.319,0,0-94.227-11.091-185.066,138.545,0,0,249.258,30.521,290.428-196.373C3726.609,376.747,3667.442,346.923,3596.38,350.963Z" fill="#5eb423"/>
    <path id="Caminho_4006" data-name="Caminho 4006" d="M3386.79,643.278a192.394,192.394,0,0,1-116.562-39.1c-17.67-13.382-36.727-24.9-57.327-33.082a213.839,213.839,0,0,1-21.122-9.763,224.581,224.581,0,0,0,386.788,5.472q-2.565.888-5.126,1.721a255.326,255.326,0,0,0-72.258,37.272A192.379,192.379,0,0,1,3386.79,643.278Z" fill="#29aecf"/>
    <path id="Caminho_4007" data-name="Caminho 4007" d="M3344.718,490.349l-1.295-.783a15.654,15.654,0,0,0-18,1.268,46.747,46.747,0,0,1-29.7,10.807c-27.752,0-50.249-25.027-50.249-55.9a60.871,60.871,0,0,1,4.683-23.527,17.005,17.005,0,0,0,4.246-6.026,16.514,16.514,0,0,0,1.211-4.973.163.163,0,0,1,.082-.131l.842-.5a5.379,5.379,0,0,0,2.722-5.494,5,5,0,0,0-4.642-4.132l-1.237-.084q-.4-.73-.871-1.426l-.092-.95c-.454-3.393-3.446-6.628-7.8-8.443-4.6-1.914-9.143-1.642-11.831.655l-.576.374q-.769.157-1.533.383l-.889-.783a5.912,5.912,0,0,0-4.7-1.281,5.1,5.1,0,0,0-3.746,6.208l.421,1.647a16.6,16.6,0,0,0-2.578,4.249,17.281,17.281,0,0,0-.117,12.912c-.031.07-.187.439-.327.767a22.122,22.122,0,0,0-7.022,12.006,22.538,22.538,0,0,0,.443,11.081,1.4,1.4,0,0,1-.084,1.017,22.318,22.318,0,0,0-.754,17.855q.045,1.1.116,2.192a22.391,22.391,0,0,0,4.195,23.429,1.433,1.433,0,0,1,.341,1.279,22.161,22.161,0,0,0-.527,4.746,22.529,22.529,0,0,0,12.965,20.4,1.439,1.439,0,0,1,.829,1.206,22.507,22.507,0,0,0,22.437,20.843c.393,0,.78-.03,1.167-.055.095.057.191.112.286.168a22.451,22.451,0,0,0,23.192,10.18,1.4,1.4,0,0,1,1.016.2,22.515,22.515,0,0,0,24.362-.106,1.392,1.392,0,0,1,1.057-.2,22.369,22.369,0,0,0,22.065-7.818c.668.06,1.342.1,2.027.1,12.44,0,23.989-10.821,23.989-23.261v-.029A15.7,15.7,0,0,0,3344.718,490.349ZM3220.24,425.141a3,3,0,1,1-3,3A3,3,0,0,1,3220.24,425.141Zm-6,22.643a3,3,0,1,1,3,3A3,3,0,0,1,3214.24,447.784Zm5.126,25.286a3,3,0,1,1,3-3A3,3,0,0,1,3219.366,473.07Zm6,24.789a3,3,0,1,1,3-3A3,3,0,0,1,3225.366,497.859Zm16.046,25a3,3,0,1,1,3-3A3,3,0,0,1,3241.412,522.858Zm24.284,14.055a3,3,0,1,1,3-3A3,3,0,0,1,3265.7,536.913Zm23.688,5.011a3,3,0,1,1,3-3A3,3,0,0,1,3289.384,541.924Zm23.448-4.132a3,3,0,1,1,3-3A3,3,0,0,1,3312.832,537.792Zm25-13.07a3,3,0,1,1,3-3A3,3,0,0,1,3337.833,524.722Z" fill="#29aecf"/>
  </g>
</svg>
