<svg xmlns="http://www.w3.org/2000/svg" width="39.357" height="38.701" viewBox="0 0 39.357 38.701">
  <g id="sprout" transform="translate(0)">
    <g id="Grupo_1808" data-name="Grupo 1808" transform="translate(5.47 29.564)">
      <g id="Grupo_1807" data-name="Grupo 1807">
        <ellipse id="Elipse_58" data-name="Elipse 58" cx="0.769" cy="0.769" rx="0.769" ry="0.769" fill="#272727"/>
      </g>
    </g>
    <g id="Grupo_1810" data-name="Grupo 1810" transform="translate(16.868 0)">
      <g id="Grupo_1809" data-name="Grupo 1809" transform="translate(0 0)">
        <path id="Caminho_3904" data-name="Caminho 3904" d="M238.02,11.087H233.5a4.208,4.208,0,0,0-2.69.969V9.745a5.481,5.481,0,0,0-5.474-5.475H220.2a.769.769,0,0,0-.769.769V7.15a5.481,5.481,0,0,0,5.474,5.474h4.36v7.792c-.2-.013-.407-.02-.612-.02a9.49,9.49,0,0,0-5.585,1.8.769.769,0,0,0,.9,1.247,8,8,0,0,1,5.9-1.417.781.781,0,0,0,.1.016,8.034,8.034,0,0,1,5.706,4.03.769.769,0,1,0,1.345-.745,9.572,9.572,0,0,0-6.216-4.686V18.157h3.754a4.232,4.232,0,0,0,4.227-4.227V11.856A.769.769,0,0,0,238.02,11.087Zm-8.75,0h-4.36a3.942,3.942,0,0,1-3.937-3.937V5.807h4.36a3.942,3.942,0,0,1,3.937,3.937Zm7.982,2.843a2.693,2.693,0,0,1-2.69,2.69h-3.754V15.314a2.693,2.693,0,0,1,2.69-2.69h3.754Z" transform="translate(-219.436 -4.27)" fill="#272727"/>
      </g>
    </g>
    <g id="Grupo_1812" data-name="Grupo 1812" transform="translate(0 19.658)">
      <g id="Grupo_1811" data-name="Grupo 1811">
        <path id="Caminho_3905" data-name="Caminho 3905" d="M39.1,265.29a3.016,3.016,0,0,0-3.972-1.539l-.011.005-5.022,2.316a.769.769,0,1,0,.644,1.4l5.016-2.313a1.475,1.475,0,0,1,1.186,2.7l-10.278,4.538a5.958,5.958,0,0,1-5.072-.115l-3.762-1.869a7.492,7.492,0,0,0-6.377-.145l-.074.033L8.566,263.93l3.9-1.724a7.768,7.768,0,0,1,5.843-.187l7.566,2.779a1.364,1.364,0,0,1-.907,2.572l-5.851-1.979a.769.769,0,0,0-.493,1.456l5.851,1.979a2.9,2.9,0,0,0,3.674-1.809,2.918,2.918,0,0,0-1.745-3.662l-7.566-2.778a9.3,9.3,0,0,0-6.994.223l-3.929,1.735a1.943,1.943,0,0,0-2.413-.718L.46,264.027a.769.769,0,0,0-.46.7v13.543a.769.769,0,0,0,1.115.686l9.8-4.95a1.948,1.948,0,0,0,1.068-2.3l.092-.04a5.958,5.958,0,0,1,5.072.115l3.762,1.869a7.491,7.491,0,0,0,6.377.144l10.278-4.538A3.016,3.016,0,0,0,39.1,265.29Zm-28.612,7.1a.407.407,0,0,1-.217.227l-.036.017-8.7,4.394V273.66l2.274-1.117a.769.769,0,0,0-.678-1.38l-1.6.784v-6.713l4.588-2.011a.41.41,0,0,1,.541.209l3.616,8.189v0l.2.449A.408.408,0,0,1,10.488,272.387Z" transform="translate(0 -260)" fill="#272727"/>
      </g>
    </g>
  </g>
</svg>
